{
    "id": 2000,
    "name": "Stir-Fried Curry Okra",
    "description": "You’ll love sharing this delicious curry okra with your family and friends.",
    "version": 2,
    "cover_pic_url": "https://www.sidechef.com/recipe/24d30cb0-2875-410e-87be-7d47a250aa32.jpg?d=1408x1120",
    "owner": {
        "id": "82297",
        "kol_id": "80",
        "full_name": "CaribbeanPot",
        "photo_url": "https://www.sidechef.com/profile/54dc445a5267dd0e5071f7ae.jpeg",
        "photo_url_large": "https://www.sidechef.com/profile/large/54dc445a5267dd0e5071f7ae.jpeg",
        "photo_url_small": "https://www.sidechef.com/profile/small/54dc445a5267dd0e5071f7ae.jpeg",
        "website_url": "https://www.youtube.com/user/caribbeanpot",
        "personal_sign": "Using the cuisine of Trinidad and Tobago as my base, please follow me on a delicious culinary tour of the islands."
    },
    "countries": [
        "American",
        "Asian"
    ],
    "dish_types": [
        "Main Dish",
        "Seafood",
        "Dinner"
    ],
    "dish_tags": [
        "Stove",
        "Pescatarian",
        "Low-Sugar",
        "Soy-Free",
        "Egg-Free",
        "Low Salt",
        "Beginner",
        "Protein Packed",
        "High Fiber",
        "Low-Fat",
        "Southwestern",
        "Main Dish",
        "SideChef Original",
        "Fish-Free",
        "Peanut-Free",
        "Gluten-Free",
        "Healthy",
        "Dinner",
        "Quick & Easy",
        "Seafood"
    ],
    "dish_tag": "Lunch",
    "active_time": 2100,
    "total_time": "2100.00",
    "servings": 4,
    "currency_currency": "",
    "currency": 2,
    "reviewed": true,
    "cooked_count": 12,
    "recommended": false,
    "saved": false,
    "external_url": "",
    "ingredients": [
        {
            "ingredient_id": "ing77",
            "ingredient_name": "Vegetable Oil",
            "original_ingredient_name": "Vegetable Oil",
            "plural": "Vegetable Oil",
            "parent_id": "ing490",
            "optional": false,
            "category": "Oils and Dressings",
            "show_weight": true,
            "deal": "2",
            "unit": "tablespoon",
            "unit_id": 16,
            "unit_symbol": "Tbsp",
            "unit_plural": "Tbsp",
            "unit_display_mode": "deal_and_unit",
            "preparations": [],
            "qualifiers": [],
            "products": [""],
            "image_url": "https://www.sidechef.com/ingredient/3250326f-a032-4a01-96d9-575ac125f403.jpeg",
            "image_medium_url": "https://www.sidechef.com/ingredient/medium/3250326f-a032-4a01-96d9-575ac125f403.jpeg",
            "image_small_url": "https://www.sidechef.com/ingredient/small/3250326f-a032-4a01-96d9-575ac125f403.jpeg?d=96x96",
            "might_have": true
        }
    ],
    "steps": [
        {
            "id": 100736,
            "guid": "4F27A0B32D3A8C406BDD03180F7B2B466441D94B",
            "duration": 180,
            "description": "Heat the {@0:} on medium heat and toss in {@2:} and {@1:}. Turn the heat down to low and let that cook for about 3-4 minutes.",
            "full_description": "Heat the Vegetable Oil (2 tablespoon) on medium heat and toss in Onion (1) and Garlic (3 clove). Turn the heat down to low and let that cook for about 3-4 minutes.",
            "description_raw": "Heat the Vegetable Oil (2 tablespoon) on medium heat and toss in Onion (1 N/A) [diced] and Garlic (3 clove) [diced]. Turn the heat down to low and let that cook for about 3-4 minutes.",
            "step_tip": "",
            "photo_url": "https://www.sidechef.com/recipe/33d3cc98-2b26-410e-9e8e-7c313f9f8ffb.jpg?d=1408x1120",
            "tip": "",
            "ingredients": [
                {
                    "ingredient_id": "ing77",
                    "ingredient_name": "Vegetable Oil",
                    "plural": "Vegetable Oil",
                    "deal": "2",
                    "unit": "tablespoon",
                    "unit_id": 16,
                    "unit_symbol": "Tbsp",
                    "unit_plural": "Tbsp",
                    "preparations": [],
                    "id": 0
                }
            ],
            "timer_label": "Cook",
            "videos": [],
            "variants": [],
            "video": {
                "url": "https://d1chloy9gc82l9.cloudfront.net/video/c20371f3-6e93-4e40-926b-1d2adfa8fd27.mp4"
            },
            "streaming_video": "https://d1chloy9gc82l9.cloudfront.net/video/stream/c20371f3-6e93-4e40-926b-1d2adfa8fd27.mp4_hls.m3u8"
        }
    ],
    "liked": false,
    "num_likes": 154,
    "num_comments": 3,
    "num_photos": 1,
    "top_comments": [
        {
            "id": 20258,
            "text": "the pimento pepper was really outstanding",
            "star": 5.0,
            "photo_url": "",
            "user": {
                "id": 1160,
                "first_name": "Ahmed Al Hammoud",
                "full_name": "Ahmed Al Hammoud",
                "photo_url": "https://www.sidechef.com/profile/54c74fbb5267dd0e50719556.jpeg",
                "photo_url_small": "https://www.sidechef.com/profile/small/54c74fbb5267dd0e50719556.jpeg"
            },
            "is_flagged": false,
            "created_at": "2017-07-24T09:48:24+0000"
        }
    ],
    "top_photos": [
        {
            "id": 30731,
            "type": "comment",
            "photo_url": "https://www.sidechef.com/recipe/552e2d015267dd14945f0cbc.jpeg",
            "created_at": "2015-04-15T09:23:28+0000",
            "user": {
                "id": 1131,
                "first_name": "Tripp Pratt",
                "full_name": "Tripp Pratt",
                "photo_url": "https://www.sidechef.com/profile/54c74fc05267dd0e5071972c.jpeg",
                "photo_url_small": "https://www.sidechef.com/profile/small/54c74fc05267dd0e5071972c.jpeg"
            },
            "is_flagged": false,
            "is_liked": false,
            "is_owner": false,
            "like_count": 0
        }
    ],
    "avg_rating": 4.7,
    "rating": 4.6667,
    "num_rating": 3,
    "video_url": "http://youtu.be/mvnCEeeZCF8",
    "cover_pic_url_small": "https://www.sidechef.com/recipe/small/24d30cb0-2875-410e-87be-7d47a250aa32.jpg?d=1408x1120",
    "cover_pic_url_medium": "https://www.sidechef.com/recipe/medium/24d30cb0-2875-410e-87be-7d47a250aa32.jpg?d=1408x1120",
    "num_cookbooks": 99,
    "suggested": [
        {
            "id": 2320,
            "name": "Jamaican Callaloo With Shrimp",
            "owner": {
                "id": "82297",
                "kol_id": "80",
                "first_name": "CaribbeanPot",
                "full_name": "CaribbeanPot",
                "photo_url": "https://www.sidechef.com/profile/54dc445a5267dd0e5071f7ae.jpeg",
                "photo_url_small": "https://www.sidechef.com/profile/small/54dc445a5267dd0e5071f7ae.jpeg"
            },
            "price_per_serving": "4.39",
            "show_grocery": true,
            "price_in_cart": {
                "serving1": 11.78,
                "serving2": 11.78,
                "serving3": 13.17,
                "serving4": 18.17,
                "serving5": 19.56,
                "serving6": 19.56,
                "serving8": 25.95,
                "serving10": 32.34,
                "serving12": 33.73,
                "serving14": 40.12,
                "serving16": 46.51
            },
            "active_time": 1200.0,
            "cook_time": null,
            "prep_time": null,
            "cover_pic_url": "https://www.sidechef.com/recipe/0a2c08bd-a939-4f99-a40c-b28e1ec3fdac.jpg?d=1408x1120",
            "cover_pic_url_origin": "https://www.sidechef.com/recipe/0a2c08bd-a939-4f99-a40c-b28e1ec3fdac.jpg",
            "cover_pic_url_small": "https://www.sidechef.com/recipe/small/0a2c08bd-a939-4f99-a40c-b28e1ec3fdac.jpg?d=1408x1120",
            "total_time": "1200.00",
            "display_time": "20min",
            "owner_slug": "caribbean-pot",
            "dish_tags": [
                "Pescatarian",
                "Main Dish",
                "Low-Carb",
                "Whole30",
                "Vegetables",
                "Easy",
                "Nut-Free",
                "Dairy-Free",
                "Spicy",
                "Gluten-Free",
                "Egg-Free",
                "Soy-Free",
                "Caribbean",
                "Fish-Free",
                "Peanut-Free",
                "Tree Nut-Free",
                "Grain-Free",
                "Sugar-Free"
            ],
            "dish_tag": "Pescatarian",
            "premium": false,
            "servings": 2,
            "avg_rating": 5.0,
            "default_price_in_cart": "11.78",
            "ingredient_count": 13,
            "ingredient_count_display": "ADD 13 INGREDIENTS",
            "required_ingredient_count": 7
        }
    ],
    "share_url": "https://stageapi.sidechef.com/recipes/2000/stir_fried_curry_okra/",
    "buy_url": "http://caribbeanpot.com/book/",
    "nutrition_information": {
        "calories": {
            "unit": "kcal",
            "value": 126,
            "daily_value_percentage": 6
        },
        "total_fat": {
            "unit": "g",
            "value": 7.3,
            "daily_value_percentage": 9
        },
        "saturated_fat": {
            "unit": "g",
            "value": 5.8,
            "daily_value_percentage": 29
        },
        "trans_fat": {
            "unit": "g",
            "value": 0.0,
            "daily_value_percentage": 22
        },
        "cholesterol": {
            "unit": "mg",
            "value": 0.0,
            "daily_value_percentage": 0
        },
        "sodium": {
            "unit": "mg",
            "value": 275.7,
            "daily_value_percentage": 12
        },
        "total_carbohydrate": {
            "unit": "g",
            "value": 14.9,
            "daily_value_percentage": 5
        },
        "protein": {
            "unit": "g",
            "value": 3.1,
            "daily_value_percentage": 6
        },
        "dietary_fiber": {
            "unit": "g",
            "value": 5.2,
            "daily_value_percentage": 19
        },
        "sugars": {
            "unit": "g",
            "value": 3.7,
            "daily_value_percentage": 22
        },
        "calcium": {
            "unit": "mg",
            "value": 118.0,
            "daily_value_percentage": 9
        },
        "iron": {
            "unit": "mg",
            "value": 0.9,
            "daily_value_percentage": 5
        },
        "potassium": {
            "unit": "mg",
            "value": 414.0,
            "daily_value_percentage": 9
        },
        "vitamin_d": {
            "unit": "",
            "value": "",
            "daily_value_percentage": 3
        }
    },
    "resources": [
        {
            "name": "Stove",
            "image": "https://www.sidechef.com/resource/ecee316f-fc23-4549-b5d7-e1f46558a783.png"
        }
    ],
    "note": "",
    "custom": false,
    "recipe_type": 0,
    "prep_time": 600,
    "cook_time": 1500,
    "community_pick": false,
    "editor_pick": false,
    "quality": 2,
    "trailer_video": "https://d1chloy9gc82l9.cloudfront.net/video/f48bb2d0-8021-4275-bfce-b19be1b317ec.mp4",
    "trailer_video_streaming": "https://d1chloy9gc82l9.cloudfront.net/video/stream/f48bb2d0-8021-4275-bfce-b19be1b317ec.mp4_hls.m3u8",
    "play_audio_track_in_video": false,
    "premium": false,
    "show_grocery": true,
    "price_in_cart": [
        {
            "servings": 1,
            "price": "6.54"
        }
    ],
    "default_price_in_cart": "7.88",
    "price_per_serving": "0.88",
    "ingredient_count": 9,
    "required_ingredient_count": 3,
    "visibility": "public"
}
